-2.5  -1.5  0  20  0 0.  0. 
-2.5  -1.5  20  30  0 0.  0. 
-2.5  -1.5  30  50  0.74479 0.  0. 
-2.5  -1.5  50  100  0.745079 0.  0. 
-2.5  -1.5  100  200  0.746349 0.  0. 
-2.5  -1.5  200  1000  0.77924 0.  0. 
-1.5  -0.5  0  20  0 0.  0. 
-1.5  -0.5  20  30  0 0.  0. 
-1.5  -0.5  30  50  0.795962 0.  0. 
-1.5  -0.5  50  100  0.84216 0.  0. 
-1.5  -0.5  100  200  0.837243 0.  0. 
-1.5  -0.5  200  1000  0.82271 0.  0. 
-0.5  0.5  0  20  0 0.  0. 
-0.5  0.5  20  30  0 0.  0. 
-0.5  0.5  30  50  0.803598 0.  0. 
-0.5  0.5  50  100  0.831686 0.  0. 
-0.5  0.5  100  200  0.827724 0.  0. 
-0.5  0.5  200  1000  0.802284 0.  0. 
0.5  1.5  0  20  0 0.  0. 
0.5  1.5  20  30  0 0.  0. 
0.5  1.5  30  50  0.816273 0.  0. 
0.5  1.5  50  100  0.822206 0.  0. 
0.5  1.5  100  200  0.820801 0.  0. 
0.5  1.5  200  1000  0.770095 0.  0. 
1.5  2.5  0  20  0 0.  0. 
1.5  2.5  20  30  0 0.  0. 
1.5  2.5  30  50  0.733753 0.  0. 
1.5  2.5  50  100  0.76844 0.  0. 
1.5  2.5  100  200  0.82256 0.  0. 
1.5  2.5  200  1000  0.775455 0.  0. 
