-2.5  -1.5  0  20  0 0.  0. 
-2.5  -1.5  20  30  0 0.  0. 
-2.5  -1.5  30  50  0.108064 0.  0. 
-2.5  -1.5  50  100  0.0952423 0.  0. 
-2.5  -1.5  100  200  0.0831639 0.  0. 
-2.5  -1.5  200  1000  0.101341 0.  0. 
-1.5  -0.5  0  20  0 0.  0. 
-1.5  -0.5  20  30  0 0.  0. 
-1.5  -0.5  30  50  0.124938 0.  0. 
-1.5  -0.5  50  100  0.1203 0.  0. 
-1.5  -0.5  100  200  0.138532 0.  0. 
-1.5  -0.5  200  1000  0.140733 0.  0. 
-0.5  0.5  0  20  0 0.  0. 
-0.5  0.5  20  30  0 0.  0. 
-0.5  0.5  30  50  0.122925 0.  0. 
-0.5  0.5  50  100  0.109022 0.  0. 
-0.5  0.5  100  200  0.134044 0.  0. 
-0.5  0.5  200  1000  0.136577 0.  0. 
0.5  1.5  0  20  0 0.  0. 
0.5  1.5  20  30  0 0.  0. 
0.5  1.5  30  50  0.11764 0.  0. 
0.5  1.5  50  100  0.106579 0.  0. 
0.5  1.5  100  200  0.119528 0.  0. 
0.5  1.5  200  1000  0.135206 0.  0. 
1.5  2.5  0  20  0 0.  0. 
1.5  2.5  20  30  0 0.  0. 
1.5  2.5  30  50  0.0951982 0.  0. 
1.5  2.5  50  100  0.0965212 0.  0. 
1.5  2.5  100  200  0.120698 0.  0. 
1.5  2.5  200  1000  0.0818234 0.  0. 
